,MNI x,MNI y,MNI z,MNI SD,Tal x,Tal y,Tal z,Tal SD
FP1,-21.5,70.2,-0.1,5.0,-21.3,68.0,-3.0,7.5
FP2,28.4,69.1,-0.4,5.1,28.1,66.9,-3.6,6.8
FZ,0.6,40.9,53.9,9.8,0.6,42.1,47.5,9.5
F3,-35.5,49.4,32.4,9.2,-35.1,49.3,27.4,8.8
F4,40.2,47.6,32.1,8.6,39.8,47.6,27.2,8.2
F7,-54.8,33.9,-3.5,6.5,-54.2,32.7,-4.4,8.4
F8,56.6,30.8,-4.1,6.2,56.0,29.7,-4.7,8.0
CZ,0.8,-14.7,73.9,8.3,0.8,-10.8,68.6,8.1
C3,-52.2,-16.4,57.8,8.0,-51.7,-13.2,53.9,7.7
C4,54.1,-18.0,57.5,7.1,53.6,-14.8,53.7,6.8
T3,-70.2,-21.3,-10.7,6.5,-69.5,-21.1,-8.1,7.2
T4,71.9,-25.2,-8.2,6.2,71.2,-24.7,-5.8,6.4
PZ,0.2,-62.1,64.5,9.2,0.2,-57.2,62.3,8.8
P3,-39.5,-76.3,47.4,7.4,-39.1,-71.7,47.3,7.1
P4,36.8,-74.9,49.2,7.6,36.5,-70.3,48.8,7.2
T5,-61.5,-65.3,1.1,7.8,-60.9,-63.2,3.9,9.2
T6,59.3,-67.6,3.8,7.3,58.7,-65.4,6.4,8.0
O1,-26.8,-100.2,12.8,10.1,-26.6,-96.5,16.1,9.7
O2,24.1,-100.5,14.1,11.1,23.9,-96.7,17.3,10.5
